%YAML 1.1
%TAG !u! tag:unity3d.com,2011:
--- !u!21 &2100000
Material:
  serializedVersion: 6
  m_ObjectHideFlags: 0
  m_PrefabParentObject: {fileID: 0}
  m_PrefabInternal: {fileID: 0}
  m_Name: ShurikenMaterial
  m_Shader: {fileID: 203, guid: 0000000000000000f000000000000000, type: 0}
  m_ShaderKeywords: 
  m_LightmapFlags: 5
  m_CustomRenderQueue: -1
  stringTagMap: {}
  m_SavedProperties:
    serializedVersion: 2
    m_TexEnvs:
      data:
        first:
          name: _MainTex
        second:
          m_Texture: {fileID: 2800000, guid: a6d0c141bc8a546b6827066134a4fa40, type: 3}
          m_Scale: {x: 1, y: 1}
          m_Offset: {x: 0, y: 0}
      data:
        first:
          name: _BumpMap
        second:
          m_Texture: {fileID: 0}
          m_Scale: {x: 1, y: 1}
          m_Offset: {x: 0, y: 0}
      data:
        first:
          name: _DecalTex
        second:
          m_Texture: {fileID: 0}
          m_Scale: {x: 1, y: 1}
          m_Offset: {x: 0, y: 0}
      data:
        first:
          name: _MatCap
        second:
          m_Texture: {fileID: 0}
          m_Scale: {x: 1, y: 1}
          m_Offset: {x: 0, y: 0}
      data:
        first:
          name: _Mask
        second:
          m_Texture: {fileID: 0}
          m_Scale: {x: 1, y: 1}
          m_Offset: {x: 0, y: 0}
      data:
        first:
          name: _MatCap2
        second:
          m_Texture: {fileID: 0}
          m_Scale: {x: 1, y: 1}
          m_Offset: {x: 0, y: 0}
      data:
        first:
          name: _ParallaxMap
        second:
          m_Texture: {fileID: 0}
          m_Scale: {x: 1, y: 1}
          m_Offset: {x: 0, y: 0}
      data:
        first:
          name: _Cube
        second:
          m_Texture: {fileID: 0}
          m_Scale: {x: 1, y: 1}
          m_Offset: {x: 0, y: 0}
      data:
        first:
          name: _Detail
        second:
          m_Texture: {fileID: 0}
          m_Scale: {x: 1, y: 1}
          m_Offset: {x: 0, y: 0}
      data:
        first:
          name: _Illum
        second:
          m_Texture: {fileID: 0}
          m_Scale: {x: 1, y: 1}
          m_Offset: {x: 0, y: 0}
    m_Floats:
      data:
        first:
          name: _Scale
        second: 1
      data:
        first:
          name: _Cutoff
        second: 1
      data:
        first:
          name: _Shininess
        second: .078125
      data:
        first:
          name: _Rayon
        second: .5
      data:
        first:
          name: _Visibilite
        second: 1
      data:
        first:
          name: _normMax
        second: 1
      data:
        first:
          name: _Attenuation
        second: 0
      data:
        first:
          name: _Brightness
        second: 1
      data:
        first:
          name: _depthcut
        second: 0
      data:
        first:
          name: _cut
        second: 0
      data:
        first:
          name: _cutX
        second: 1
      data:
        first:
          name: _cutY
        second: 1
      data:
        first:
          name: _cutZ
        second: 1
      data:
        first:
          name: _texture
        second: 0
      data:
        first:
          name: _colormode
        second: 1
      data:
        first:
          name: _ColorWeight
        second: .5
      data:
        first:
          name: _Rayon1
        second: .100000001
      data:
        first:
          name: _Rayon2
        second: .100000001
      data:
        first:
          name: _Shrink
        second: .100000001
      data:
        first:
          name: _EllipseFactor
        second: 1
      data:
        first:
          name: _Parallax
        second: .0199999996
      data:
        first:
          name: _InvFade
        second: .942499995
      data:
        first:
          name: _BumpAmt
        second: 10
      data:
        first:
          name: _EmissionLM
        second: 0
    m_Colors:
      data:
        first:
          name: _Color
        second: {r: 1, g: 1, b: 1, a: 1}
      data:
        first:
          name: _SpecColor
        second: {r: .5, g: .5, b: .5, a: 1}
      data:
        first:
          name: _Emission
        second: {r: 0, g: 0, b: 0, a: 0}
      data:
        first:
          name: _TexPos
        second: {r: 0, g: 0, b: 0, a: 1}
      data:
        first:
          name: _Light
        second: {r: 1, g: 0, b: 0, a: 0}
      data:
        first:
          name: _Color2
        second: {r: 1, g: .100000001, b: .100000001, a: 1}
      data:
        first:
          name: _TintColor
        second: {r: .5, g: .5, b: .5, a: .5}
      data:
        first:
          name: _ColorIN
        second: {r: .5, g: .5, b: .5, a: 1}
      data:
        first:
          name: _TexPos1
        second: {r: 0, g: 0, b: 0, a: 1}
      data:
        first:
          name: _TexPos2
        second: {r: 3, g: 0, b: 0, a: 1}
      data:
        first:
          name: _EmisColor
        second: {r: .200000003, g: .200000003, b: .200000003, a: 0}
      data:
        first:
          name: _ReflectColor
        second: {r: 1, g: 1, b: 1, a: .5}
